…
``` r
# extract the variant location with respect to genomic features
varLoc<-extract_variantLocation(rd)
#> 'select()' returned many:1 mapping between keys and columns
#> 'select()' returned many:1 mapping between keys and columns
#> 'select()' returned many:1 mapping between keys and columns
#> 'select()' returned many:1 mapping between keys and columns
#> 'select()' returned many:1 mapping between keys and columns
#> 'select()' returned many:1 mapping between keys and columns

# take a quick look at the result
varLoc
#> # A tibble: 7,559 x 3
#> # Groups:   QUERYID [7,559]
#>    LOCATION   QUERYID GENEID
#>    <fct>        <int> <chr> 
#>  1 intergenic       1 <NA>  
#>  2 coding           2 57801 
#>  3 coding           3 1855  
#>  4 fiveUTR          4 1855  
#>  5 intron           5 984   
#>  6 intron           6 984   
#>  7 intron           7 984   
#>  8 coding           8 984   
#>  9 coding           9 984   
#> 10 coding          10 728642
#> # … with 7,549 more rows
```
…
Additional information of interest about each variant is also returned,
including the reference allele codon and amino acid (REFCODON, REFAA),
the alternative allele codon and amino acid (VARCODON, VARAA) and the
variant name in the ExAC style.

``` r
# extract the variant consequence with respect to genomic features
varConseq<-extract_variantConsequence(rd)

# take a quick look at the result
varConseq
#> # A tibble: 3,262 x 8
#> # Groups:   QUERYID [3,262]
#>    QUERYID GENEID CONSEQUENCE   REFCODON VARCODON REFAA VARAA ExACname     
#>      <int> <chr>  <fct>         <chr>    <chr>    <chr> <chr> <chr>        
#>  1       2 57801  nonsynonymous AGG      AGT      R     S     1-935222-C-A 
#>  2       3 1855   synonymous    CCA      CCG      P     P     1-1277533-T-C
#>  3       8 984    nonsynonymous GGG      AGG      G     R     1-1575784-C-T
#>  4       9 984    synonymous    GCG      GCA      A     A     1-1577180-C-T
#>  5      10 728642 synonymous    AAA      AAG      K     K     1-1635004-T-C
#>  6      11 728642 synonymous    CGG      CGT      R     R     1-1635749-C-A
#>  7      12 728642 synonymous    TAC      TAT      Y     Y     1-1636044-G-A
#>  8      13 728642 nonsynonymous GGG      AGG      G     R     1-1638994-C-T
#>  9      15 984    synonymous    GAA      GAG      E     E     1-1647814-T-C
#> 10      16 984    synonymous    CGA      CGG      R     R     1-1647871-T-C
#> # … with 3,252 more rows
```
